Social Data Science – Linear Regression
…
The function below will simulate data

simulate <- function(n = 100) {
  read_csv("https://ilundberg.github.io/description/assets/truth.csv") |>
    slice_sample(n = n, weight_by = weight, replace = T) |>
    mutate(income = exp(rnorm(n(), meanlog, sdlog))) |>
    select(year, age, sex, income)
}

Data for illustration

simulated <- simulate(n = 3e4)

# A tibble: 30,000 × 4
   year   age sex    income
  <dbl> <dbl> <chr>   <dbl>
1  2011    48 female 93676.
2  2012    38 female 98805.
3  2013    38 female 52330.
# ℹ 29,997 more rows
…
# A tibble: 1 × 1
  conditional_expectation
                    <dbl>
1                  71530.

Code: Mean in many subgroups

With group_by, you can summarize many subgroups

simulated |>
  group_by(sex, age, year) |>
  summarize(conditional_expectation = mean(income))

# A tibble: 420 × 4
# Groups:   sex, age [42]
  sex      age  year conditional_expectation
  <chr>  <dbl> <dbl>                   <dbl>
1 female    30  2010                  45928.
2 female    30  2011                  43688.
3 female    30  2012                  42714.
# ℹ 417 more rows
…
To learn \(f(\vec{x})\) from data is a central task in statistical learning.

Statistical Learning by Pooling Information

A subgroup is small

simulated |>
  filter(sex == "female") |>
  filter(year == 2019) |>
  filter(age == 47)

# A tibble: 67 × 4
   year   age sex    income
  <dbl> <dbl> <chr>   <dbl>
1  2019    47 female 15761.
2  2019    47 female 32995.
3  2019    47 female 83967.
# ℹ 64 more rows

Very few cases \(\rightarrow\) statistically uncertain

How to better estimate for 47-year-old females in 2019?

Pooling information across subgroups

We have many female respondents in 2019. Few are age 47.

simulated |>
  filter(sex == "female") |>
  filter(year == 2019)

# A tibble: 1,427 × 4
   year   age sex    income
  <dbl> <dbl> <chr>   <dbl>
1  2019    32 female 52130.
2  2019    46 female 17465.
3  2019    41 female 66012.
# ℹ 1,424 more rows
…
where \[\begin{aligned}
\gamma_0 &= \beta_0^\text{Male}
&\gamma_1 &= \beta_0^\text{Female} - \beta_0^\text{Male} \\
\gamma_2 &= \beta_1^\text{Male}
&\gamma_3 &= \beta_1^\text{Female} - \beta_1^\text{Male}
\end{aligned}\]

Two models: Interaction in code

Generate data in 2019 that vary in both sex and age

all_2019 <- simulated |>
  filter(year == 2019)

# A tibble: 3,204 × 4
   year   age sex   income
  <dbl> <dbl> <chr>  <dbl>
1  2019    41 male  50285.
2  2019    45 male  31057.
3  2019    34 male  66166.
# ℹ 3,201 more rows
…
