Models for Causal Inference – Social Data Science
…
In code, we make those predictions with the predict() function, storing them in new variables yhat1 and yhat0.

predicted_potential_outcomes <- all_cases |>
  mutate(
    yhat1 = predict(model_for_y1, newdata = all_cases),
    yhat0 = predict(model_for_y0, newdata = all_cases),
    effect = yhat1 - yhat0
  )

# A tibble: 7,688 × 6
     id sampling_weight a         yhat1  yhat0 effect
  <dbl>           <dbl> <chr>     <dbl>  <dbl>  <dbl>
1     1           0.989 untreated 0.403 0.171   0.232
2     2           0.999 treated   0.645 0.317   0.328
3     3           0.967 untreated 0.283 0.0990  0.184
# ℹ 7,685 more rows
…
Otherwise, outcome modeling with many confounders follows the same process. If our goal is to estimate the average treatment effect in all_cases,

predicted_potential_outcomes <- all_cases |>
  mutate(
    yhat1 = predict(model_for_y1, newdata = all_cases),
    yhat0 = predict(model_for_y0, newdata = all_cases),
    effect = yhat1 - yhat0
  ) |>
  select(id, sampling_weight, a, yhat1, yhat0, effect) |>
  print(n = 3)

# A tibble: 7,688 × 6
     id sampling_weight a         yhat1   yhat0 effect
  <dbl>           <dbl> <chr>     <dbl>   <dbl>  <dbl>
1     1           0.989 untreated 0.255  0.0889  0.166
2     2           0.999 treated   0.727  0.441   0.285
3     3           0.967 untreated 0.149 -0.0139  0.163
# ℹ 7,685 more rows
…
  mutate(
    yhat1 = predict(
      logistic_model_for_y1, 
      newdata = all_cases, 
      type = "response"
    ),
    yhat0 = predict(
      logistic_model_for_y0, 
      newdata = all_cases, 
      type = "response"
    ),
    effect = yhat1 - yhat0
  )

# A tibble: 7,688 × 6
     id sampling_weight a         yhat1  yhat0 effect
  <dbl>           <dbl> <chr>     <dbl>  <dbl>  <dbl>
1     1           0.989 untreated 0.254 0.0861  0.168
2     2           0.999 treated   0.726 0.562   0.164
3     3           0.967 untreated 0.177 0.0261  0.151
# ℹ 7,685 more rows
…
treatment_model <- glm(
  I(a == "treated") ~ sex + race + mom_educ + dad_educ + log_parent_income +
    log_parent_wealth + test_percentile,
  family = binomial,
  data = all_cases
)

For every unit, we can then predict the probability of being treated given the adjustment set.

predicted_treatment_probabilities <- all_cases |>
  mutate(p_treated = predict(treatment_model, type = "response")) |>
  select(id, a, y, p_treated)

# A tibble: 7,688 × 4
     id a         y     p_treated
  <dbl> <chr>     <lgl>     <dbl>
1     1 untreated FALSE    0.0720
2     2 treated   TRUE     0.777 
3     3 untreated FALSE    0.0318
# ℹ 7,685 more rows
…
In code, we can use case_when() to assign this weight as 1 / p_treated for treated units and 1 / (1 - p_treated) for untreated units.

inverse_probability_weights <- predicted_treatment_probabilities |>
  mutate(
    weight = case_when(
      a == "treated" ~ 1 / p_treated,
      a == "untreated" ~ 1 / (1 - p_treated)
    )
  )

# A tibble: 7,688 × 5
     id a         y     p_treated weight
  <dbl> <chr>     <lgl>     <dbl>  <dbl>
1     1 untreated FALSE    0.0720   1.08
2     2 treated   TRUE     0.777    1.29
3     3 untreated FALSE    0.0318   1.03
# ℹ 7,685 more rows
…
