Linear Regression – Social Data Science
…
Below you can see this function in action.

simulated <- simulate(n = 3e4)

Rows: 420 Columns: 6
── Column specification ────────────────────────────────────────────────────────
Delimiter: ","
chr (1): sex
dbl (5): year, age, meanlog, sdlog, weight

ℹ Use `spec()` to retrieve the full column specification for this data.
ℹ Specify the column types or set `show_col_types = FALSE` to quiet this message.

# A tibble: 30,000 × 4
   year   age sex    income
  <dbl> <dbl> <chr>   <dbl>
1  2011    48 female 93676.
2  2012    38 female 98805.
3  2013    38 female 52330.
# ℹ 29,997 more rows
…
# A tibble: 1 × 1
  conditional_expectation
                    <dbl>
1                  71530.

Often, we want to study many conditional expectations: the mean outcome in many subgroups. In previous homework, we have seen how group_by and summarize can yield the mean in many subgroups.

simulated |>
  group_by(sex, age, year) |>
  summarize(conditional_expectation = mean(income))

`summarise()` has grouped output by 'sex', 'age'. You can override using the
`.groups` argument.

# A tibble: 420 × 4
# Groups:   sex, age [42]
  sex      age  year conditional_expectation
  <chr>  <dbl> <dbl>                   <dbl>
1 female    30  2010                  45928.
2 female    30  2011                  43688.
3 female    30  2012                  42714.
# ℹ 417 more rows
…
To learn \(f(\vec{x})\) from data is a central task in statistical learning.

#$ Statistical learning by pooling information

A common problem of statistical inference is that we want to study a subgroup, but there are few cases within the subgroup. For example, female respondents age 47 in 2019 in our simulated data.

simulated |>
  filter(sex == "female") |>
  filter(year == 2019) |>
  filter(age == 47)

# A tibble: 67 × 4
   year   age sex    income
  <dbl> <dbl> <chr>   <dbl>
1  2019    47 female 15761.
2  2019    47 female 32995.
3  2019    47 female 83967.
# ℹ 64 more rows

Few cases in a subgroup leads to statistical uncertainty about the mean in the subgroup. How can we better estimate this conditional mean?

One strategy is to pool information using a model. We have many female respondents in 2019. The only problem is that few are age 47.

simulated |>
  filter(sex == "female") |>
  filter(year == 2019)

# A tibble: 1,427 × 4
   year   age sex    income
  <dbl> <dbl> <chr>   <dbl>
1  2019    32 female 52130.
2  2019    46 female 17465.
3  2019    41 female 66012.
# ℹ 1,424 more rows
…
Note that both approaches summarize the conditional mean function with 4 parameters. The two approaches are actually equivalent, as you can show with some algebra.

\[\begin{aligned}
\gamma_0 &= \beta_0^\text{Male}
&\gamma_1 &= \beta_0^\text{Female} - \beta_0^\text{Male} \\
\gamma_2 &= \beta_1^\text{Male}
&\gamma_3 &= \beta_1^\text{Female} - \beta_1^\text{Male}
\end{aligned}\]

Below, we practice writing an interaction in code. First generate data in 2019 that vary in both sex and age.

all_2019 <- simulated |>
  filter(year == 2019)

# A tibble: 3,204 × 4
   year   age sex   income
  <dbl> <dbl> <chr>  <dbl>
1  2019    41 male  50285.
2  2019    45 male  31057.
3  2019    34 male  66166.
# ℹ 3,201 more rows
…
