Data transformation – Social Data Science
…
group_by() and summarize() for subpopulation summaries

In this step, you will use group_by() and summarize() to convert your mutated object to a new object called summarized.

Each row in our dataset is a person. We want a dataset where each row is a year. To get there, we will group our data by year and then summarize each group by a set of summary statistics.

Introducing summarize() with the sample mean

To see how summarize() works, let’s first summarize the sample mean income within each year. The input has one row per person. The result has one row per group. For each year, it records the sample mean income.

filtered |>
  group_by(year) |>
  summarize(mean_income = mean(incwage))

# A tibble: 62 × 2
    year mean_income
   <dbl>       <dbl>
 1  1962       6383.
 2  1963       5831.
 3  1964       6688.
 4  1965       6066.
 5  1966       6438.
 6  1967       6745.
 7  1968       7244.
 8  1969       8465.
 9  1970       9198.
10  1971       8490.
# ℹ 52 more rows
…
pivot_longer() to reshape data

In this step, you will use pivot_longer() to convert your summarized object to a new object called pivoted. We first explain why, then explain the task.

We ultimately want to make a ggplot() where income values are placed on the y-axis. We want to plot the 10th, 50th, and 90th percentiles along this axis, distinguished by color. We need them all in one colun! But currently, they are in three columns.

Here is the task. How our data look:

# A tibble: 62 × 4
   year   p10   p50    p90
  <dbl> <dbl> <dbl>  <dbl>
1  1962 1826. 4460. 11733.
2  1963 1770. 4484. 11934.
# ℹ 60 more rows

Here we want our data to look:

# A tibble: 186 × 3
   year quantity income
  <dbl> <chr>     <dbl>
1  1962 p10       1826.
2  1962 p50       4460.
3  1962 p90      11733.
4  1963 p10       1770.
5  1963 p50       4484.
6  1963 p90      11934.
# ℹ 180 more rows
…
left_join() an inflation adjustment

In this step, you will use left_join() to merge in an inflation adjustment

A dollar in 1962 bought a lot more than a dollar in 2022. We will adjust for inflation using the Consumer Price Index, which tracks the cost of a standard basket of market goods. We already took this index to create a file inflation.csv,

inflation <- read_csv("https://soc114.github.io/data/inflation.csv")

# A tibble: 62 × 2
   year inflation_factor
  <dbl>            <dbl>
1  1962            10.1 
2  1963             9.95
3  1964             9.82
# ℹ 59 more rows

The inflation_factor tells us that $1 in 1962 could buy about as much as $10.10 in 2023. To take a 1962 income and report it in 2023 dollars, we should multiple it by 10.1. We need to join our data

# A tibble: 186 × 3
   year quantity income
  <dbl> <chr>     <dbl>
1  1962 p10       1826.
2  1962 p50       4460.
3  1962 p90      11733.
# ℹ 183 more rows
…
