Models for causal inference – Social Data Science
…
Why did we choose this model formula? You can actually choose any model formula, but there are some reasons we chose this one. In our model formula, we begin with the treatment a and then we interact this treatment with an additive function of all confounders a * (...). This is equivalent to fitting two models: an additive OLS model for \(Y^\text{treated}\) and an additive OLS model for \(Y^\text{untreated}\), which is a desirable thing to do when we think the effect of college may differ for people with different values on the adjustment set. This type of model was proposed by Lin (2013) and is also known as a t-learner (Kunzel et al. 2019) because it is equivalent to estimating two separate regression models of outcome on confounder: one for the treated group and one for the untreated group. For a recent discussion of its advantages, see Hazlett & Shinkre (2024).

The model has a lot of terms! You can see them with summary(model). Thankfully, we won’t interpret any of them. We will just use the model as a tool to predict potential outcomes.

2) Predict potential outcomes

The code below predicts the conditional average potential outcome under treatment and control at the confounder values of each observation.

First, we create data with a set to the value treated for everyone.

data_if_treated <- data |>
  mutate(a = "treated")

# A tibble: 7,771 × 10
     id a       y     sex   race             mom_educ dad_educ log_parent_income
  <dbl> <chr>   <lgl> <chr> <chr>            <chr>    <chr>                <dbl>
1     1 treated TRUE  Male  Non-Hispanic No… < HS     < HS                  8.55
2     2 treated FALSE Male  Non-Hispanic No… Some co… College              31.8 
3     3 treated FALSE Male  Non-Hispanic Bl… College  High sc…             14.1 
# ℹ 7,768 more rows
# ℹ 2 more variables: log_parent_wealth <dbl>, test_percentile <dbl>

Then, we create data with a set to the value untreated for everyone.

data_if_untreated <- data |>
  mutate(a = "untreated")

# A tibble: 7,771 × 10
     id a         y     sex   race           mom_educ dad_educ log_parent_income
  <dbl> <chr>     <lgl> <chr> <chr>          <chr>    <chr>                <dbl>
1     1 untreated TRUE  Male  Non-Hispanic … < HS     < HS                  8.55
2     2 untreated FALSE Male  Non-Hispanic … Some co… College              31.8 
3     3 untreated FALSE Male  Non-Hispanic … College  High sc…             14.1 
# ℹ 7,768 more rows
# ℹ 2 more variables: log_parent_wealth <dbl>, test_percentile <dbl>

We use our outcome model to predict the conditional mean of the potential outcome under each scenario.

predicted_outcomes <- data |>
  mutate(
    y1_predicted = predict(outcome_model, newdata = data_if_treated),
    y0_predicted = predict(outcome_model, newdata = data_if_untreated),
    effect_predicted = y1_predicted - y0_predicted
  ) |>
  select(id, a, y, y1_predicted, y0_predicted, effect_predicted)

# A tibble: 7,771 × 6
     id a         y     y1_predicted y0_predicted effect_predicted
  <dbl> <chr>     <lgl>        <dbl>        <dbl>            <dbl>
1     1 treated   TRUE         0.507        0.318            0.188
2     2 treated   FALSE        0.742        0.505            0.237
3     3 untreated FALSE        0.391        0.159            0.232
# ℹ 7,768 more rows
…
treatment_model <- glm(
  I(a == "treated") ~ sex + race + mom_educ + dad_educ + log_parent_income +
    log_parent_wealth + test_percentile,
  family = binomial,
  data = data
)

For every unit, we can then predict the probability of being treated given the adjustment set.

predicted_treatment_probabilities <- data |>
  mutate(p_treated = predict(treatment_model, type = "response")) |>
  select(id, a, y, p_treated)

# A tibble: 7,771 × 4
     id a         y     p_treated
  <dbl> <chr>     <lgl>     <dbl>
1     1 treated   TRUE      0.236
2     2 treated   FALSE     0.860
3     3 untreated FALSE     0.133
# ℹ 7,768 more rows
…
In code, we can use case_when() to assign this weight as 1 / p_treated for treated units and 1 / (1 - p_treated) for untreated units.

inverse_probability_weights <- predicted_treatment_probabilities |>
  mutate(
    weight = case_when(
      a == "treated" ~ 1 / p_treated,
      a == "untreated" ~ 1 / (1 - p_treated)
    )
  )

# A tibble: 7,771 × 5
     id a         y     p_treated weight
  <dbl> <chr>     <lgl>     <dbl>  <dbl>
1     1 treated   TRUE      0.236   4.24
2     2 treated   FALSE     0.860   1.16
3     3 untreated FALSE     0.133   1.15
# ℹ 7,768 more rows
…
Each unit represents a number of units corresponding to its inverse probability weight

Estimate the population-average error by the weighted mean of errors, within each treatment group

Improve estimate (1) by subtracting the average error (3)

This estimator has some properties that make it superior to outcome or treatment modeling alone, as we will discuss at the end of this section.

1) Model outcomes and produce an initial ATE estimate.

We already did this above! Our predictions are stored in an object already.

predicted_outcomes |> print(n = 3)

# A tibble: 7,771 × 6
     id a         y     y1_predicted y0_predicted effect_predicted
  <dbl> <chr>     <lgl>        <dbl>        <dbl>            <dbl>
1     1 treated   TRUE         0.507        0.318            0.188
2     2 treated   FALSE        0.742        0.505            0.237
3     3 untreated FALSE        0.391        0.159            0.232
# ℹ 7,768 more rows

2) Model treatments to create weights

We already did this above! Our weights are stored in an object already.

inverse_probability_weights |> print(n = 3)

# A tibble: 7,771 × 5
     id a         y     p_treated weight
  <dbl> <chr>     <lgl>     <dbl>  <dbl>
1     1 treated   TRUE      0.236   4.24
2     2 treated   FALSE     0.860   1.16
3     3 untreated FALSE     0.133   1.15
# ℹ 7,768 more rows

3) Estimate the weighted average error

For each unit, we can calculate the error as the difference between the actual outcome \(Y\) and the predicted outcome \(\hat{Y}\) under the treatment value that actually happened for that unit.

errors <- predicted_outcomes |>
  mutate(
    error = case_when(
      a == "treated" ~ y1_predicted - y,
      a == "untreated" ~ y0_predicted - y
    )
  )

# A tibble: 7,771 × 7
     id a         y     y1_predicted y0_predicted effect_predicted  error
  <dbl> <chr>     <lgl>        <dbl>        <dbl>            <dbl>  <dbl>
1     1 treated   TRUE         0.507        0.318            0.188 -0.493
2     2 treated   FALSE        0.742        0.505            0.237  0.742
3     3 untreated FALSE        0.391        0.159            0.232  0.159
# ℹ 7,768 more rows

We then merge our errors with our weights, so that we can see how many total units each error should represent.

errors_with_weight <- errors |>
  select(id, a, error) |>
  left_join(
    inverse_probability_weights |> select(id, p_treated, weight), 
    by = join_by(id)
  )

# A tibble: 7,771 × 5
     id a          error p_treated weight
  <dbl> <chr>      <dbl>     <dbl>  <dbl>
1     1 treated   -0.493     0.236   4.24
2     2 treated    0.742     0.860   1.16
3     3 untreated  0.159     0.133   1.15
# ℹ 7,768 more rows
…
