Nonparametric estimation – Social Data Science
…
  mutate(probability_of_a = case_when(
    # For treated units, proportion treated
    a == 1 ~ mean(a),
    # For untreated units, proportion untreated
    a == 0 ~ mean(1 - a)
  )) |>
  # Calculate the total weight as the product
  # of the sampling weight and the inverse probability of treatment
  mutate(
    total_weight = sampling_weight * (1 / probability_of_a)
  ) |>
  ungroup() |>
  print()

# A tibble: 1,000 × 8
      id     x    pi     a      y sampling_weight probability_of_a total_weight
   <int> <int> <dbl> <int>  <dbl>           <dbl>            <dbl>        <dbl>
 1     1     1   0.5     0  0.969               1            0.547         1.83
 2     2     2   0.8     1  3.48                1            0.819         1.22
 3     3     1   0.5     1  1.71                1            0.453         2.21
 4     4     0   0.3     0 -0.797               1            0.709         1.41
 5     5     0   0.3     0 -0.603               1            0.709         1.41
 6     6     1   0.5     0 -1.98                1            0.547         1.83
 7     7     1   0.5     0  0.216               1            0.547         1.83
 8     8     2   0.8     1  1.65                1            0.819         1.22
 9     9     0   0.3     0 -0.416               1            0.709         1.41
10    10     2   0.8     1  1.51                1            0.819         1.22
# ℹ 990 more rows
…
